Chapter 7 Strings and factors with stringr and forcats | An(other) introduction to R
…
Now you need to write something for someone who is not particular familiar with the political landscape in Germany and rather wants “left,” “center,” and “right” instead of the party’s names. Give fct_collapse() a shot – and feel free to change it if you disagree with my classification.

lcr_ger <- fct_collapse(parties_fct,
                        left = c("Leftists", "Greens", "SPD"),
                        centre = c("CDU", "CSU", "FDP"),
                        right = c("AfD")
                        )

Another thing you could do – and this is handy for the election data set – is collapsing things together according to their frequency of appearance. In the case of the election data set, this might be handy to lump together the candidates into three groups: Donald Trump, Hillary Clinton, and other.

election_data_w_fct %>% 
  mutate(candidate = fct_lump(candidate, n = 2))

## # A tibble: 18,007 × 8
##    county      candidate    state pct_report  votes total_votes     pct lead    
##    <fct>       <fct>        <fct>      <dbl>  <dbl>       <dbl>   <dbl> <fct>   
##  1 Los Angele… Hillary Cli… CA         1     1.65e6     2314275 0.715   Hillary…
##  2 Los Angele… Donald Trump CA         1     5.43e5     2314275 0.234   Hillary…
##  3 Los Angele… Gary Johnson CA         1     5.69e4     2314275 0.0246  Hillary…
##  4 Los Angele… Other        CA         1     4.67e4     2314275 0.0202  Hillary…
##  5 Los Angele… Other        CA         1     1.35e4     2314275 0.00582 Hillary…
##  6 Cook County Hillary Cli… IL         0.975 1.53e6     2055215 0.744   Hillary…
##  7 Cook County Donald Trump IL         0.975 4.40e5     2055215 0.214   Hillary…
##  8 Cook County Gary Johnson IL         0.975 5.59e4     2055215 0.0272  Hillary…
##  9 Cook County Other        IL         0.975 3.05e4     2055215 0.0149  Hillary…
## 10 Harris Cou… Hillary Cli… TX         1     7.06e5     1302887 0.542   Hillary…
## # … with 17,997 more rows

The problem here is that Gary Johnson appears as often as the two other candidates (have you ever heard of him?). Hence, fct_lump() cannot decide which levels to lump together. However, it has saved me a couple lines of code:

election_data_w_fct %>% 
  mutate(candidate = fct_lump(candidate, n = 2) %>% fct_recode("Other" = "Gary Johnson"))

## # A tibble: 18,007 × 8
##    county      candidate    state pct_report  votes total_votes     pct lead    
##    <fct>       <fct>        <fct>      <dbl>  <dbl>       <dbl>   <dbl> <fct>   
##  1 Los Angele… Hillary Cli… CA         1     1.65e6     2314275 0.715   Hillary…
##  2 Los Angele… Donald Trump CA         1     5.43e5     2314275 0.234   Hillary…
##  3 Los Angele… Other        CA         1     5.69e4     2314275 0.0246  Hillary…
##  4 Los Angele… Other        CA         1     4.67e4     2314275 0.0202  Hillary…
##  5 Los Angele… Other        CA         1     1.35e4     2314275 0.00582 Hillary…
##  6 Cook County Hillary Cli… IL         0.975 1.53e6     2055215 0.744   Hillary…
##  7 Cook County Donald Trump IL         0.975 4.40e5     2055215 0.214   Hillary…
##  8 Cook County Other        IL         0.975 5.59e4     2055215 0.0272  Hillary…
##  9 Cook County Other        IL         0.975 3.05e4     2055215 0.0149  Hillary…
## 10 Harris Cou… Hillary Cli… TX         1     7.06e5     1302887 0.542   Hillary…
## # … with 17,997 more rows
…
