Chapter 4 Working with data | An(other) introduction to R
…
You can create a tibble by column using the tibble function. Column names need to be specified and linked to vectors of either the same length or length one.

This data set basically consists of three variables: German car manufacturer, number of cylinders, and frequency. To make the data set tidy, it has to consist of three columns depicting the three respective variables. This operation is called pivoting the non-variable columns into two-column key-value pairs. As the data set will thereafter contain fewer columns and more rows than before, it will have become longer (or taller). Hence, the tidyr function is called pivot_longer().

ger_car_manufacturer_longer <- tibble_value_headers %>% 
  pivot_longer(-manufacturer, names_to = "cylinders", values_to = "frequency")
ger_car_manufacturer_longer

## # A tibble: 40 × 3
##    manufacturer cylinders frequency
##    <chr>        <chr>         <dbl>
##  1 Audi         3 cyl            15
##  2 Audi         4 cyl            62
##  3 Audi         5 cyl             6
##  4 Audi         6 cyl            48
##  5 Audi         8 cyl            26
##  6 Audi         10 cyl            3
##  7 Audi         12 cyl            5
##  8 Audi         16 cyl            0
##  9 BMW          3 cyl            14
## 10 BMW          4 cyl            58
## # … with 30 more rows
…
ger_car_manufacturer_longer_sep_cyl <- ger_car_manufacturer_longer %>% # first, take the tibble
  separate(cylinders, into = c("cylinders", "drop_it"), sep = " ") %>% # and then split the column "cylinders" into two
  select(-drop_it) # you will learn about this in the lesson on dplyr  # and then drop one column from the tibble

If there are two (or actually more) relevant values in one column, you can simply let out the dropping process and easily split them into multiple columns. By default, the sep = argument divides the content by all non-alphanumeric characters (every character that is not a letter, number, or space) it contains.

Please note that the new column is still in character format. We can change this using as.numeric():

ger_car_manufacturer_longer_sep_cyl$cylinders <- as.numeric(ger_car_manufacturer_longer_sep_cyl$cylinders)

Furthermore, you might want to sort your data in a different manner. If you want to do this by cylinders, it would look like this:

arrange(ger_car_manufacturer_longer_sep_cyl, cylinders)

## # A tibble: 40 × 3
##    manufacturer cylinders frequency
##    <chr>            <dbl>     <dbl>
##  1 Audi                 3        15
##  2 BMW                  3        14
##  3 Mercedes             3        19
##  4 Opel                 3        12
##  5 VW                   3        15
##  6 Audi                 4        62
##  7 BMW                  4        58
##  8 Mercedes             4        61
##  9 Opel                 4        80
## 10 VW                   4        58
## # … with 30 more rows
…
It can be considered a conjunction in coding. Usually, you will use it when working with tibbles. What it does is pretty straight-forward: it takes what is on its left – the input – and provides it to the function on its right as the first argument. Hence, the code in the last chunk, which looks like this

arrange(ger_car_manufacturer_longer_sep_cyl, cylinders)

## # A tibble: 40 × 3
##    manufacturer cylinders frequency
##    <chr>            <dbl>     <dbl>
##  1 Audi                 3        15
##  2 BMW                  3        14
##  3 Mercedes             3        19
##  4 Opel                 3        12
##  5 VW                   3        15
##  6 Audi                 4        62
##  7 BMW                  4        58
##  8 Mercedes             4        61
##  9 Opel                 4        80
## 10 VW                   4        58
## # … with 30 more rows

could have also been written like this

ger_car_manufacturer_longer_sep_cyl %>% arrange(cylinders)

## # A tibble: 40 × 3
##    manufacturer cylinders frequency
##    <chr>            <dbl>     <dbl>
##  1 Audi                 3        15
##  2 BMW                  3        14
##  3 Mercedes             3        19
##  4 Opel                 3        12
##  5 VW                   3        15
##  6 Audi                 4        62
##  7 BMW                  4        58
##  8 Mercedes             4        61
##  9 Opel                 4        80
## 10 VW                   4        58
## # … with 30 more rows
…
