Chapter 5 Manipulation with dplyr | An(other) introduction to R
…
Keep in mind that you can throw any function into mutate() as long as it is vectorized and the output has the same length as the tibble or 1.

5.1.4 summarize() and group_by

When you analyze data, you often want to compare entities according to some sort of summary statistic. This means that you, first, need to split up your data set into certain groups which share one or more characteristics, and, second, collapse the columns together into single-row summaries. The former challenge is accomplished using group_by() whose argument is one or more variables, the latter requires the summarize() function. This function works similar to mutate() but uses summary functions – which take a vector of multiple values and return a single value – instead of window functions – which return a vector of the same length as the input.

Let me provide you an example.

I am interested in the director’s average ratings:

imdb_selected %>% 
  group_by(director) %>% 
  summarize(avg_rating = mean(rating))

## # A tibble: 644 × 2
##    director            avg_rating
##    <chr>                    <dbl>
##  1 Aamir Khan                 8.5
##  2 Abdellatif Kechiche        7.8
##  3 Adam Leon                  6.5
##  4 Adam McKay                 7  
##  5 Adam Shankman              6.3
##  6 Adam Wingard               5.9
##  7 Afonso Poyart              6.4
##  8 Aisling Walsh              7.8
##  9 Akan Satayev               6.3
## 10 Akiva Schaffer             6.7
## # … with 634 more rows
…
Summary functions in R

Another handy function akin to this is count(). It counts all occurrences of a singular value in the tibble.

If I were interested in how many movies of the different directors have made it into the data set, I could use this code:

imdb_selected %>% 
  count(director)

## # A tibble: 644 × 2
##    director                n
##    <chr>               <int>
##  1 Aamir Khan              1
##  2 Abdellatif Kechiche     1
##  3 Adam Leon               1
##  4 Adam McKay              4
##  5 Adam Shankman           2
##  6 Adam Wingard            2
##  7 Afonso Poyart           1
##  8 Aisling Walsh           1
##  9 Akan Satayev            1
## 10 Akiva Schaffer          1
## # … with 634 more rows

Beyond that, you can also use group_by() with mutate. If you do so, the rows will not be collapsed together as in summarize().

5.1.5 arrange()

Finally, you can also sort values using arrange(). In the last section, I was interested in directors’ respective average ratings. The values were ordered according to their name (hence, “Aamir Khan” was first). In this case, the order dos not make too much sense, because the first name does not say too much about the director’s ratings. Therefore, I want to sort them according to their average ratings:

imdb_selected %>% 
  group_by(director) %>% 
  summarize(avg_rating = mean(rating)) %>% 
  arrange(avg_rating)

## # A tibble: 644 × 2
##    director           avg_rating
##    <chr>                   <dbl>
##  1 Jason Friedberg           1.9
##  2 James Wong                2.7
##  3 Shawn Burkett             2.7
##  4 Jonathan Holbrook         3.2
##  5 Femi Oyeniran             3.5
##  6 Micheal Bafaro            3.5
##  7 Jeffrey G. Hunt           3.7
##  8 Rolfe Kanefsky            3.9
##  9 Joey Curtis               4  
## 10 Sam Taylor-Johnson        4.1
## # … with 634 more rows

All right, Jason Friedberg is apparently the director of the worst rated movie in my data set. But it would be more handy, if they were arranged in descending order. I can use desc() for this:

imdb_selected %>% 
  group_by(director) %>% 
  summarize(avg_rating = mean(rating)) %>% 
  arrange(-avg_rating)

## # A tibble: 644 × 2
##    director                         avg_rating
##    <chr>                                 <dbl>
##  1 Nitesh Tiwari                          8.8 
##  2 Christopher Nolan                      8.68
##  3 Makoto Shinkai                         8.6 
##  4 Olivier Nakache                        8.6 
##  5 Aamir Khan                             8.5 
##  6 Florian Henckel von Donnersmarck       8.5 
##  7 Damien Chazelle                        8.4 
##  8 Naoko Yamada                           8.4 
##  9 Amber Tamblyn                          8.3 
## 10 Lee Unkrich                            8.3 
## # … with 634 more rows
…
election_data12 <- election_data %>% 
  select(name, state, per_dem_2012:partywinner12)

demographic_data <- election_data %>% 
  select(name, state, pop:hh_income) %>% 
  slice(1:2000)

5.2.3 left_join() and right_join()

election_data16 %>% 
  left_join(demographic_data)

## Joining, by = c("name", "state")

## # A tibble: 3,141 × 17
##    name             state votes_dem_2016 votes_gop_2016 total_votes_2016 per_dem_2016
##    <chr>            <chr>          <dbl>          <dbl>            <dbl>        <dbl>
##  1 Adams County     IL              7633          22732            31770        0.240
##  2 Alexander County IL              1262           1496             2820        0.448
##  3 Bond County      IL              2066           4884             7462        0.277
##  4 Boone County     IL              8952          12261            22604        0.396
##  5 Brown County     IL               475           1776             2336        0.203
##  6 Bureau County    IL              6010           9264            16303        0.369
##  7 Calhoun County   IL               739           1719             2556        0.289
##  8 Carroll County   IL              2437           4428             7354        0.331
##  9 Cass County      IL              1617           3216             5054        0.320
## 10 Champaign County IL             49694          33235            89196        0.557
## # … with 3,131 more rows, and 11 more variables: per_gop_2016 <dbl>,
## #   diff_2016 <dbl>, winner <chr>, partywinner16 <chr>, pop <dbl>,
## #   female <dbl>, white <dbl>, black <dbl>, travel_time <dbl>, land_area <dbl>,
## #   hh_income <dbl>

If the column that both data sets have in common has the same name, there’s no need to provide it. If this is not the case, you need to provide it in a character vector:

election_data16 %>% 
  rename(county = name) %>% 
  right_join(demographic_data, by = c("county" = "name"))

## # A tibble: 10,348 × 18
##    county    state.x votes_dem_2016 votes_gop_2016 total_votes_2016 per_dem_2016
##    <chr>     <chr>            <dbl>          <dbl>            <dbl>        <dbl>
##  1 Adams Co… IL                7633          22732            31770        0.240
##  2 Adams Co… IL                7633          22732            31770        0.240
##  3 Adams Co… IL                7633          22732            31770        0.240
##  4 Adams Co… IL                7633          22732            31770        0.240
##  5 Adams Co… IL                7633          22732            31770        0.240
##  6 Adams Co… IL                7633          22732            31770        0.240
##  7 Adams Co… IL                7633          22732            31770        0.240
##  8 Adams Co… IL                7633          22732            31770        0.240
##  9 Adams Co… IL                7633          22732            31770        0.240
## 10 Alexande… IL                1262           1496             2820        0.448
## # … with 10,338 more rows, and 12 more variables: per_gop_2016 <dbl>,
## #   diff_2016 <dbl>, winner <chr>, partywinner16 <chr>, state.y <chr>,
## #   pop <dbl>, female <dbl>, white <dbl>, black <dbl>, travel_time <dbl>,
## #   land_area <dbl>, hh_income <dbl>

Here, the problem is that the same counties exist in different states. Therefore, all combinations are returned. Hence, I need to specify two arguments: the county’s name and state.

election_data16 %>% 
  rename(county = name) %>% 
  right_join(demographic_data, by = c("county" = "name", "state"))

## # A tibble: 2,000 × 17
##    county           state votes_dem_2016 votes_gop_2016 total_votes_2016 per_dem_2016
##    <chr>            <chr>          <dbl>          <dbl>            <dbl>        <dbl>
##  1 Adams County     IL              7633          22732            31770        0.240
##  2 Alexander County IL              1262           1496             2820        0.448
##  3 Bond County      IL              2066           4884             7462        0.277
##  4 Boone County     IL              8952          12261            22604        0.396
##  5 Brown County     IL               475           1776             2336        0.203
##  6 Bureau County    IL              6010           9264            16303        0.369
##  7 Calhoun County   IL               739           1719             2556        0.289
##  8 Carroll County   IL              2437           4428             7354        0.331
##  9 Cass County      IL              1617           3216             5054        0.320
## 10 Champaign County IL             49694          33235            89196        0.557
## # … with 1,990 more rows, and 11 more variables: per_gop_2016 <dbl>,
## #   diff_2016 <dbl>, winner <chr>, partywinner16 <chr>, pop <dbl>,
## #   female <dbl>, white <dbl>, black <dbl>, travel_time <dbl>, land_area <dbl>,
## #   hh_income <dbl>

Left joins return all rows which are in x. If a column is in x but not in y, an NA will be included at this position. Right joins work vice versa.

5.2.4 inner_join()

election_data16 %>% 
  inner_join(demographic_data)

## Joining, by = c("name", "state")

## # A tibble: 2,000 × 17
##    name             state votes_dem_2016 votes_gop_2016 total_votes_2016 per_dem_2016
##    <chr>            <chr>          <dbl>          <dbl>            <dbl>        <dbl>
##  1 Adams County     IL              7633          22732            31770        0.240
##  2 Alexander County IL              1262           1496             2820        0.448
##  3 Bond County      IL              2066           4884             7462        0.277
##  4 Boone County     IL              8952          12261            22604        0.396
##  5 Brown County     IL               475           1776             2336        0.203
##  6 Bureau County    IL              6010           9264            16303        0.369
##  7 Calhoun County   IL               739           1719             2556        0.289
##  8 Carroll County   IL              2437           4428             7354        0.331
##  9 Cass County      IL              1617           3216             5054        0.320
## 10 Champaign County IL             49694          33235            89196        0.557
## # … with 1,990 more rows, and 11 more variables: per_gop_2016 <dbl>,
## #   diff_2016 <dbl>, winner <chr>, partywinner16 <chr>, pop <dbl>,
## #   female <dbl>, white <dbl>, black <dbl>, travel_time <dbl>, land_area <dbl>,
## #   hh_income <dbl>

An inner_join() returns all rows which are in x and y.

5.2.5 full_join()

election_data16 %>% 
  full_join(demographic_data)

## Joining, by = c("name", "state")

## # A tibble: 3,141 × 17
##    name             state votes_dem_2016 votes_gop_2016 total_votes_2016 per_dem_2016
##    <chr>            <chr>          <dbl>          <dbl>            <dbl>        <dbl>
##  1 Adams County     IL              7633          22732            31770        0.240
##  2 Alexander County IL              1262           1496             2820        0.448
##  3 Bond County      IL              2066           4884             7462        0.277
##  4 Boone County     IL              8952          12261            22604        0.396
##  5 Brown County     IL               475           1776             2336        0.203
##  6 Bureau County    IL              6010           9264            16303        0.369
##  7 Calhoun County   IL               739           1719             2556        0.289
##  8 Carroll County   IL              2437           4428             7354        0.331
##  9 Cass County      IL              1617           3216             5054        0.320
## 10 Champaign County IL             49694          33235            89196        0.557
## # … with 3,131 more rows, and 11 more variables: per_gop_2016 <dbl>,
## #   diff_2016 <dbl>, winner <chr>, partywinner16 <chr>, pop <dbl>,
## #   female <dbl>, white <dbl>, black <dbl>, travel_time <dbl>, land_area <dbl>,
## #   hh_income <dbl>

A full_join() returns rows and columns from both x and y.

5.2.6 semi_join()

Filtering joins only keep the cases from x, no data set is added.

election_data16 %>% 
  semi_join(demographic_data)

## Joining, by = c("name", "state")

## # A tibble: 2,000 × 10
##    name             state votes_dem_2016 votes_gop_2016 total_votes_2016 per_dem_2016
##    <chr>            <chr>          <dbl>          <dbl>            <dbl>        <dbl>
##  1 Adams County     IL              7633          22732            31770        0.240
##  2 Alexander County IL              1262           1496             2820        0.448
##  3 Bond County      IL              2066           4884             7462        0.277
##  4 Boone County     IL              8952          12261            22604        0.396
##  5 Brown County     IL               475           1776             2336        0.203
##  6 Bureau County    IL              6010           9264            16303        0.369
##  7 Calhoun County   IL               739           1719             2556        0.289
##  8 Carroll County   IL              2437           4428             7354        0.331
##  9 Cass County      IL              1617           3216             5054        0.320
## 10 Champaign County IL             49694          33235            89196        0.557
## # … with 1,990 more rows, and 4 more variables: per_gop_2016 <dbl>,
## #   diff_2016 <dbl>, winner <chr>, partywinner16 <chr>

The semi_join() returns all rows from x with matching values in y. You can compare it to a right_join() but without adding the columns of y.

5.2.7 anti_join()

election_data16 %>% 
  anti_join(demographic_data)

## Joining, by = c("name", "state")

## # A tibble: 1,141 × 10
##    name              state votes_dem_2016 votes_gop_2016 total_votes_2016 per_dem_2016
##    <chr>             <chr>          <dbl>          <dbl>            <dbl>        <dbl>
##  1 Onslow County     NC             17156          36342            55364        0.310
##  2 Orange County     NC             59105          18373            79830        0.740
##  3 Pamlico County    NC              2427           4225             6772        0.358
##  4 Pasquotank County NC              8455           8082            16964        0.498
##  5 Pender County     NC              9086          17317            27072        0.336
##  6 Perquimans County NC              2291           4143             6595        0.347
##  7 Person County     NC              7772          11116            19303        0.403
##  8 Pitt County       NC             40967          35191            78264        0.523
##  9 Polk County       NC              3715           6738            10723        0.346
## 10 Randolph County   NC             13074          49156            63615        0.206
## # … with 1,131 more rows, and 4 more variables: per_gop_2016 <dbl>,
## #   diff_2016 <dbl>, winner <chr>, partywinner16 <chr>
…
